<?xml version="1.0" encoding="UTF-8" standalone="no"?>
<svg
   xmlns:dc="http://purl.org/dc/elements/1.1/"
   xmlns:cc="http://creativecommons.org/ns#"
   xmlns:rdf="http://www.w3.org/1999/02/22-rdf-syntax-ns#"
   xmlns:svg="http://www.w3.org/2000/svg"
   xmlns="http://www.w3.org/2000/svg"
   xmlns:sodipodi="http://sodipodi.sourceforge.net/DTD/sodipodi-0.dtd"
   xmlns:inkscape="http://www.inkscape.org/namespaces/inkscape"
   version="1.1"
   id="svg2"
   width="24"
   viewBox="0 0 24 24"
   height="24"
   fill="#000000"
   sodipodi:docname="preference_upright.svg"
   inkscape:version="0.92.4 (5da689c313, 2019-01-14)">
  <sodipodi:namedview
     pagecolor="#ffffff"
     bordercolor="#666666"
     borderopacity="1"
     objecttolerance="10"
     gridtolerance="10"
     guidetolerance="10"
     inkscape:pageopacity="0"
     inkscape:pageshadow="2"
     inkscape:window-width="1920"
     inkscape:window-height="1017"
     id="namedview6"
     showgrid="true"
     inkscape:pagecheckerboard="true"
     inkscape:zoom="22.627417"
     inkscape:cx="9.8525709"
     inkscape:cy="12.442331"
     inkscape:window-x="-8"
     inkscape:window-y="-8"
     inkscape:window-maximized="1"
     inkscape:current-layer="svg2">
    <inkscape:grid
       type="xygrid"
       id="grid8" />
  </sodipodi:namedview>
  <metadata
     id="metadata12">
    <rdf:RDF>
      <cc:Work
         rdf:about="">
        <dc:format>image/svg+xml</dc:format>
        <dc:type
           rdf:resource="http://purl.org/dc/dcmitype/StillImage" />
        <dc:title />
      </cc:Work>
    </rdf:RDF>
  </metadata>
  <defs
     id="defs10" />
  <path
     id="path10"
     style="opacity:1;fill:#ffffff;fill-opacity:1;stroke:none;stroke-width:4.25196838;stroke-linecap:butt;stroke-linejoin:round;stroke-miterlimit:4;stroke-dasharray:none;stroke-dashoffset:0;stroke-opacity:1"
     d="m 12,13.498047 c -3.0037609,0 -9,1.134474 -9,4.126953 V 21 h 9 9 v -3.375 c 0,-2.992479 -5.996239,-4.126953 -9,-4.126953 z m 0,2 c 1.250091,0 3.392584,0.276498 4.964844,0.828125 0.78613,0.275813 1.424214,0.629083 1.742187,0.904297 C 19.025005,17.505682 19,17.544804 19,17.625 V 19 H 12 5 V 17.625 C 5,17.544804 4.9749951,17.505683 5.2929688,17.230469 5.6109424,16.955255 6.2490261,16.601985 7.0351562,16.326172 8.6074165,15.774545 10.749909,15.498047 12,15.498047 Z M 12,3 C 9.51376,3 7.5,5.0137609 7.5,7.5 7.5,9.9862388 9.51376,12 12,12 14.486239,12 16.5,9.9862388 16.5,7.5 16.5,5.0137609 14.486239,3 12,3 Z m 0,2 c 1.381244,0 2.5,1.1187561 2.5,2.5 C 14.5,8.8812436 13.381244,10 12,10 10.618756,10 9.5,8.8812436 9.5,7.5 9.5,6.1187561 10.618756,5 12,5 Z" />
</svg>
