<?xml version="1.0" encoding="UTF-8" standalone="no"?>
<svg
   xmlns:dc="http://purl.org/dc/elements/1.1/"
   xmlns:cc="http://creativecommons.org/ns#"
   xmlns:rdf="http://www.w3.org/1999/02/22-rdf-syntax-ns#"
   xmlns:svg="http://www.w3.org/2000/svg"
   xmlns="http://www.w3.org/2000/svg"
   xmlns:sodipodi="http://sodipodi.sourceforge.net/DTD/sodipodi-0.dtd"
   xmlns:inkscape="http://www.inkscape.org/namespaces/inkscape"
   fill="#000000"
   height="24"
   viewBox="0 0 24 24"
   width="24"
   id="svg2"
   version="1.1"
   inkscape:version="0.92.4 (5da689c313, 2019-01-14)"
   sodipodi:docname="quick_setting_off_27.svg"
   inkscape:export-filename="C:\Users\Sam\Desktop\Auto Rotate\Icon Sketches\Front on\notification_app.png"
   inkscape:export-xdpi="135"
   inkscape:export-ydpi="135">
  <metadata
     id="metadata12">
    <rdf:RDF>
      <cc:Work
         rdf:about="">
        <dc:format>image/svg+xml</dc:format>
        <dc:type
           rdf:resource="http://purl.org/dc/dcmitype/StillImage" />
        <dc:title />
      </cc:Work>
    </rdf:RDF>
  </metadata>
  <defs
     id="defs10">
    <inkscape:perspective
       sodipodi:type="inkscape:persp3d"
       inkscape:vp_x="0 : 12 : 1"
       inkscape:vp_y="0 : 1000 : 0"
       inkscape:vp_z="24 : 12 : 1"
       inkscape:persp3d-origin="12 : 8 : 1"
       id="perspective4136" />
  </defs>
  <sodipodi:namedview
     pagecolor="#000000"
     bordercolor="#666666"
     borderopacity="1"
     objecttolerance="10"
     gridtolerance="10"
     guidetolerance="10"
     inkscape:pageopacity="0"
     inkscape:pageshadow="2"
     inkscape:window-width="1920"
     inkscape:window-height="1017"
     id="namedview8"
     showgrid="true"
     inkscape:snap-bbox="true"
     inkscape:bbox-paths="true"
     inkscape:bbox-nodes="true"
     inkscape:snap-bbox-edge-midpoints="true"
     inkscape:zoom="27.81287"
     inkscape:cx="1.3132084"
     inkscape:cy="8.4720707"
     inkscape:window-x="-8"
     inkscape:window-y="-8"
     inkscape:window-maximized="1"
     inkscape:current-layer="svg2"
     inkscape:object-paths="true"
     inkscape:snap-intersection-paths="true"
     inkscape:object-nodes="true"
     inkscape:pagecheckerboard="true"
     inkscape:snap-smooth-nodes="true"
     inkscape:snap-center="true"
     inkscape:snap-object-midpoints="true"
     inkscape:snap-midpoints="true"
     inkscape:snap-bbox-midpoints="true"
     inkscape:snap-text-baseline="true"
     inkscape:snap-page="true">
    <inkscape:grid
       type="xygrid"
       id="grid4140" />
  </sodipodi:namedview>
  <path
     id="rect4138"
     style="opacity:1;fill:#ffffff;fill-opacity:1;stroke:none;stroke-width:3.77952743;stroke-linecap:butt;stroke-linejoin:round;stroke-miterlimit:4;stroke-dasharray:none;stroke-dashoffset:0;stroke-opacity:1"
     d="m 1.2871094,1.7011719 a 1,1 0 0 0 -1.00000002,1 1,1 0 0 0 0.29296874,0.7070312 L 2,4.828125 v 13.837891 h 7.3144531 c 0.7697219,-1.744449 0.9550299,-3.834977 0.9999999,-5.523438 l 7.191406,7.191406 H 2 V 22 h 17.171875 l 1.410156,1.410156 a 1,1 0 0 0 0.716797,0.302735 1,1 0 0 0 1,-1 1,1 0 0 0 -0.292969,-0.707032 L 22,22 20.333984,20.333984 17,17 12,12 10.226562,10.226562 2.0039062,2.0039062 A 1,1 0 0 0 2,2 l -0.00586,-0.00586 A 1,1 0 0 0 1.2871094,1.7011719 Z M 4.828125,2 l 4.75,4.75 C 8.8849853,4.2292997 7.6729191,2 5.75,2 Z M 17,7 c -1.943231,0 -3.607944,1.1180829 -4.435547,2.7363281 l 6.699219,6.6992189 C 20.881917,15.607944 22,13.943231 22,12 22,9.237512 19.762488,7 17,7 Z" />
</svg>
